digraph "/storage7/Technical Engineering/Projects/AUTOSAR_projects/1_DIO/autosar_dio_driver_atmega328/Det.h"
{
  edge [fontname="Helvetica",fontsize="10",labelfontname="Helvetica",labelfontsize="10"];
  node [fontname="Helvetica",fontsize="10",shape=record];
  Node0 [label="/storage7/Technical\l Engineering/Projects\l/AUTOSAR_projects/1_DIO\l/autosar_dio_driver_atmega328/Det.h",height=0.2,width=0.4,color="black", fillcolor="grey75", style="filled", fontcolor="black"];
  Node0 -> Node1 [dir="back",color="midnightblue",fontsize="10",style="solid",fontname="Helvetica"];
  Node1 [label="/storage7/Technical\l Engineering/Projects\l/AUTOSAR_projects/1_DIO\l/autosar_dio_driver_atmega328/Det.c",height=0.2,width=0.4,color="black", fillcolor="white", style="filled",URL="$_det_8c.html"];
  Node0 -> Node2 [dir="back",color="midnightblue",fontsize="10",style="solid",fontname="Helvetica"];
  Node2 [label="/storage7/Technical\l Engineering/Projects\l/AUTOSAR_projects/1_DIO\l/autosar_dio_driver_atmega328/Dio.c",height=0.2,width=0.4,color="black", fillcolor="white", style="filled",URL="$_dio_8c.html",tooltip="This is the source file (API Definitions) of the Dio module of AUTOSAR r4.3.1. "];
}
