digraph "/storage7/Technical Engineering/Projects/AUTOSAR_projects/1_DIO/autosar_dio_driver_atmega328/Dio_Lcfg.c"
{
  edge [fontname="Helvetica",fontsize="10",labelfontname="Helvetica",labelfontsize="10"];
  node [fontname="Helvetica",fontsize="10",shape=record];
  Node0 [label="/storage7/Technical\l Engineering/Projects\l/AUTOSAR_projects/1_DIO\l/autosar_dio_driver_atmega328\l/Dio_Lcfg.c",height=0.2,width=0.4,color="black", fillcolor="grey75", style="filled", fontcolor="black"];
  Node0 -> Node1 [color="midnightblue",fontsize="10",style="solid",fontname="Helvetica"];
  Node1 [label="Dio.h",height=0.2,width=0.4,color="black", fillcolor="white", style="filled",URL="$_dio_8h.html",tooltip="This is the header file (Type Definitions + API Declarations) of the Dio module of AUTOSAR r4..."];
  Node1 -> Node2 [color="midnightblue",fontsize="10",style="solid",fontname="Helvetica"];
  Node2 [label="Std_Types.h",height=0.2,width=0.4,color="black", fillcolor="white", style="filled",URL="$_std___types_8h.html"];
  Node2 -> Node3 [color="midnightblue",fontsize="10",style="solid",fontname="Helvetica"];
  Node3 [label="Compiler.h",height=0.2,width=0.4,color="black", fillcolor="white", style="filled",URL="$_compiler_8h.html"];
  Node2 -> Node4 [color="midnightblue",fontsize="10",style="solid",fontname="Helvetica"];
  Node4 [label="Platform_Types.h",height=0.2,width=0.4,color="black", fillcolor="white", style="filled",URL="$_platform___types_8h.html"];
  Node4 -> Node5 [color="midnightblue",fontsize="10",style="solid",fontname="Helvetica"];
  Node5 [label="stdint.h",height=0.2,width=0.4,color="grey75", fillcolor="white", style="filled"];
  Node1 -> Node6 [color="midnightblue",fontsize="10",style="solid",fontname="Helvetica"];
  Node6 [label="Dio_Cfg.h",height=0.2,width=0.4,color="black", fillcolor="white", style="filled",URL="$_dio___cfg_8h.html",tooltip="This is the header file (Type Definitions) for the pre-compile configurations of the Dio module of AU..."];
  Node6 -> Node2 [color="midnightblue",fontsize="10",style="solid",fontname="Helvetica"];
}
