digraph "Configurable_Constants"
{
  edge [fontname="Helvetica",fontsize="10",labelfontname="Helvetica",labelfontsize="10"];
  node [fontname="Helvetica",fontsize="10",shape=record];
  rankdir=LR;
  Node1 [label="Configuration_Fields",height=0.2,width=0.4,color="black", fillcolor="white", style="filled",URL="$group___configuration___fields.html"];
  Node0 [label="Configurable_Constants",height=0.2,width=0.4,color="black", fillcolor="grey75", style="filled", fontcolor="black"];
  Node1->Node0 [shape=plaintext, dir="back", style="solid"];
}
